/home/james/projects/L&GTechTest/src/main/java/com/application/Main.java
/home/james/projects/L&GTechTest/src/main/java/com/application/VendingMachineConfiguration.java
/home/james/projects/L&GTechTest/src/main/java/com/application/VendingMachine.java
/home/james/projects/L&GTechTest/src/main/java/com/application/Products.java
/home/james/projects/L&GTechTest/src/main/java/com/application/VendingMachineConfigurationImpl.java
